I, [2015-09-01T11:41:16.863979 #1042]  INFO -- : Refreshing Gem list
I, [2015-09-01T11:41:24.625837 #1042]  INFO -- : unlinking existing socket=/Users/Cosmo/rorapps/bicitest/tmp/unicorn.sock
I, [2015-09-01T11:41:24.644689 #1042]  INFO -- : listening on addr=/Users/Cosmo/rorapps/bicitest/tmp/unicorn.sock fd=10
I, [2015-09-01T11:41:25.227836 #1042]  INFO -- : master process ready
I, [2015-09-01T11:41:25.248882 #1043]  INFO -- : worker=0 ready
I, [2015-09-01T11:45:01.282106 #1042]  INFO -- : reaped #<Process::Status: pid 1043 exit 0> worker=0
I, [2015-09-01T11:45:01.305830 #1042]  INFO -- : master complete
I, [2015-09-01T11:49:50.580637 #1050]  INFO -- : Refreshing Gem list
I, [2015-09-01T11:49:56.700905 #1050]  INFO -- : unlinking existing socket=/Users/Cosmo/rorapps/bicitest/tmp/unicorn.sock
I, [2015-09-01T11:49:56.701297 #1050]  INFO -- : listening on addr=/Users/Cosmo/rorapps/bicitest/tmp/unicorn.sock fd=10
I, [2015-09-01T11:49:57.337069 #1050]  INFO -- : master process ready
I, [2015-09-01T11:49:57.354843 #1051]  INFO -- : worker=0 ready
I, [2015-09-01T11:54:18.525982 #1050]  INFO -- : reaped #<Process::Status: pid 1051 exit 0> worker=0
I, [2015-09-01T11:54:18.526910 #1050]  INFO -- : master complete
I, [2015-09-01T12:00:02.040330 #1059]  INFO -- : Refreshing Gem list
I, [2015-09-01T12:00:10.364930 #1059]  INFO -- : unlinking existing socket=/Users/Cosmo/rorapps/bicitest/tmp/unicorn.sock
I, [2015-09-01T12:00:10.399689 #1059]  INFO -- : listening on addr=/Users/Cosmo/rorapps/bicitest/tmp/unicorn.sock fd=10
I, [2015-09-01T12:00:10.400923 #1059]  INFO -- : listening on addr=0.0.0.0:8080 fd=11
I, [2015-09-01T12:00:10.946830 #1059]  INFO -- : master process ready
I, [2015-09-01T12:00:10.957197 #1064]  INFO -- : worker=3 ready
I, [2015-09-01T12:00:10.958289 #1063]  INFO -- : worker=2 ready
I, [2015-09-01T12:00:10.958467 #1062]  INFO -- : worker=1 ready
I, [2015-09-01T12:00:10.994888 #1061]  INFO -- : worker=0 ready
I, [2015-09-01T12:04:50.941136 #1059]  INFO -- : reaped #<Process::Status: pid 1064 exit 0> worker=3
I, [2015-09-01T12:04:50.981576 #1059]  INFO -- : reaped #<Process::Status: pid 1063 exit 0> worker=2
I, [2015-09-01T12:04:50.981817 #1059]  INFO -- : reaped #<Process::Status: pid 1062 exit 0> worker=1
I, [2015-09-01T12:04:50.981883 #1059]  INFO -- : reaped #<Process::Status: pid 1061 exit 0> worker=0
I, [2015-09-01T12:04:50.983449 #1059]  INFO -- : master complete
